<?xml version="1.0" encoding="UTF-8"?>
<svg width="174px" height="22px" viewBox="0 0 174 22" version="1.1" xmlns="http://www.w3.org/2000/svg" xmlns:xlink="http://www.w3.org/1999/xlink">
    <title>WELLEMRGroup-CMYK</title>
    <g id="Log-In" stroke="none" stroke-width="1" fill="none" fill-rule="evenodd">
        <g id="Log-in---V1" transform="translate(-70.000000, -972.000000)" fill="#FFFFFF">
            <g id="WELLEMRGroup-CMYK" transform="translate(70.000000, 972.000000)">
                <polyline id="Fill-1" points="59.9298 7.57974 61.93467 7.57974 64.07289 14.02317 66.3432 7.57974 67.74411 7.57974 70.01442 14.02317 72.15264 7.57974 74.15772 7.57974 70.73703 17.90082 69.33654 17.90082 67.03641 11.36919 64.75119 17.90082 63.35028 17.90082 59.9298 7.57974"></polyline>
                <polyline id="Fill-2" points="77.05593 9.3492 77.05593 11.487 80.22567 11.487 80.22567 13.25646 77.05593 13.25646 77.05593 16.13157 81.40545 16.13157 81.40545 17.90082 75.06534 17.90082 75.06534 7.57974 81.25803 7.57974 81.25803 9.3492 77.05593 9.3492"></polyline>
                <polyline id="Fill-3" points="82.75512 7.57974 84.74571 7.57974 84.74571 16.13157 89.09523 16.13157 89.09523 17.90082 82.75512 17.90082 82.75512 7.57974"></polyline>
                <polyline id="Fill-4" points="90.22398 7.57974 92.21436 7.57974 92.21436 16.13157 96.56388 16.13157 96.56388 17.90082 90.22398 17.90082 90.22398 7.57974"></polyline>
                <polyline id="Fill-5" points="104.33535 9.35046 104.33535 11.48805 107.50509 11.48805 107.50509 13.25709 104.33535 13.25709 104.33535 16.13199 108.68445 16.13199 108.68445 17.90103 102.34539 17.90103 102.34539 7.58121 108.53703 7.58121 108.53703 9.35046 104.33535 9.35046"></polyline>
                <polyline id="Fill-6" points="114.9729 13.75836 118.73253 7.58121 120.13302 7.58121 120.13302 17.90103 118.14264 17.90103 118.14264 12.15144 115.6659 16.20549 114.28032 16.20549 111.80358 12.15144 111.80358 17.90103 109.8132 17.90103 109.8132 7.58121 111.21369 7.58121 114.9729 13.75836"></polyline>
                <path d="M124.90296,11.56176 C125.47794,11.56176 125.72847,11.44374 125.9055,11.25222 C126.08232,11.06049 126.20013,10.76565 126.20013,10.47081 C126.20013,10.16127 126.08232,9.86643 125.9055,9.6747 C125.72847,9.48318 125.47794,9.35046 124.90296,9.35046 L123.25173,9.35046 L123.25173,11.56176 L124.90296,11.56176 Z M123.25173,13.3308 L123.25173,17.90103 L121.26177,17.90103 L121.26177,7.58121 L125.02098,7.58121 C126.08232,7.58121 126.76041,7.87605 127.27638,8.34792 C127.83666,8.8788 128.19072,9.6306 128.19072,10.45611 C128.19072,11.28162 127.83666,12.03363 127.27638,12.5643 C126.99645,12.82974 126.6573,13.03596 126.24444,13.16868 L130.10718,17.90103 L127.64493,17.90103 L123.97413,13.3308 L123.25173,13.3308 L123.25173,13.3308 Z" id="Fill-7"></path>
                <path d="M135.7104,12.74112 C135.7104,14.7462 137.24382,16.27941 139.23399,16.27941 C140.17752,16.27941 140.94402,15.95517 141.53391,15.4833 L141.53391,13.25709 L138.88014,13.25709 L138.88014,11.48805 L143.52387,11.48805 L143.52387,16.07277 C142.61016,17.23764 141.07695,18.04866 139.18989,18.04866 C135.97584,18.04866 133.72044,15.70443 133.72044,12.74112 C133.72044,9.77802 135.94644,7.434 139.16049,7.434 C140.69349,7.434 142.00578,8.00877 142.93461,8.9082 L141.65172,10.26438 C141.03243,9.6453 140.16282,9.20304 139.14558,9.20304 C137.18502,9.20304 135.7104,10.78035 135.7104,12.74112" id="Fill-8"></path>
                <path d="M149.00172,12.44628 C148.86921,12.40218 148.58907,12.37257 148.30914,12.37257 C147.46872,12.37257 146.80512,12.97695 146.56908,13.40451 L146.56908,17.90103 L144.65262,17.90103 L144.65262,10.75095 L146.49558,10.75095 L146.49558,11.47335 C146.92293,10.94268 147.70434,10.60353 148.57416,10.60353 C148.8543,10.60353 149.01663,10.63314 149.22285,10.66254 L149.00172,12.44628" id="Fill-9"></path>
                <path d="M153.22377,16.27941 C154.34412,16.27941 155.11062,15.40959 155.11062,14.33334 C155.11062,13.25709 154.34412,12.37257 153.22377,12.37257 C152.10321,12.37257 151.33671,13.25709 151.33671,14.33334 C151.33671,15.40959 152.10321,16.27941 153.22377,16.27941 Z M153.22377,10.60353 C155.39097,10.60353 157.02729,12.26946 157.02729,14.33334 C157.02729,16.39722 155.39097,18.04866 153.22377,18.04866 C151.05657,18.04866 149.42025,16.39722 149.42025,14.33334 C149.42025,12.26946 151.05657,10.60353 153.22377,10.60353 L153.22377,10.60353 Z" id="Fill-10"></path>
                <path d="M164.76936,10.75095 L164.76936,17.90103 L162.9264,17.90103 L162.9264,17.32605 C162.36633,17.82732 161.68803,18.04866 160.99545,18.04866 C160.00761,18.04866 159.12309,17.59149 158.56281,16.8987 C158.10564,16.33842 157.8402,15.60111 157.8402,14.53998 L157.8402,10.75095 L159.75687,10.75095 L159.75687,14.61348 C159.75687,15.26217 159.88959,15.58641 160.11093,15.83715 C160.40556,16.16139 160.81842,16.27941 161.18697,16.27941 C161.99778,16.27941 162.58767,15.73383 162.8529,15.39489 L162.8529,10.75095 L164.76936,10.75095" id="Fill-11"></path>
                <path d="M167.81436,15.39489 C168.18312,15.92556 168.81711,16.27941 169.5393,16.27941 C170.61555,16.27941 171.42657,15.45369 171.42657,14.33334 C171.42657,13.3014 170.70417,12.37257 169.58361,12.37257 C168.84651,12.37257 168.21273,12.72642 167.81436,13.25709 L167.81436,15.39489 Z M165.8979,10.75095 L167.74086,10.75095 L167.74086,11.32593 C168.30114,10.86897 169.02333,10.60353 169.83414,10.60353 C171.78021,10.60353 173.34303,12.22536 173.34303,14.33334 C173.34303,15.30648 173.00388,16.191 172.4436,16.83969 C171.80982,17.57679 170.79258,18.04866 169.73103,18.04866 C169.00863,18.04866 168.38955,17.84202 167.81436,17.39976 L167.81436,21.43911 L165.8979,21.43911 L165.8979,10.75095 L165.8979,10.75095 Z" id="Fill-12"></path>
                <path d="M10.58757,8.69736 C10.58757,7.22925 9.3975,6.03918 7.9296,6.03918 C6.46149,6.03918 5.27142,7.22925 5.27142,8.69736 C5.27142,10.16526 6.46149,11.35533 7.9296,11.35533 C9.3975,11.35533 10.58757,10.16526 10.58757,8.69736" id="Fill-13"></path>
                <path d="M6.33087,3.23022 C6.33087,1.48764 4.91841,0.07518 3.17583,0.07518 C1.43325,0.07518 0.02058,1.48764 0.02058,3.23022 C0.02058,4.9728 1.43325,6.38547 3.17583,6.38547 C4.91841,6.38547 6.33087,4.9728 6.33087,3.23022" id="Fill-14"></path>
                <path d="M14.84784,14.1645 C14.84784,12.96918 13.87869,12.00003 12.68316,12.00003 C11.48784,12.00003 10.51869,12.96918 10.51869,14.1645 C10.51869,15.36024 11.48784,16.32918 12.68316,16.32918 C13.87869,16.32918 14.84784,15.36024 14.84784,14.1645" id="Fill-15"></path>
                <path d="M19.10643,19.63206 C19.10643,20.55375 18.35904,21.30135 17.43714,21.30135 C16.51524,21.30135 15.76785,20.55375 15.76785,19.63206 C15.76785,18.71016 16.51524,17.96277 17.43714,17.96277 C18.35904,17.96277 19.10643,18.71016 19.10643,19.63206" id="Fill-16"></path>
                <path d="M17.63013,4.1223 C17.63013,5.73048 16.32645,7.03416 14.71827,7.03416 C13.10988,7.03416 11.80599,5.73048 11.80599,4.1223 C11.80599,2.51391 13.10988,1.21023 14.71827,1.21023 C16.32645,1.21023 17.63013,2.51391 17.63013,4.1223" id="Fill-17"></path>
                <path d="M20.34711,9.82506 C20.34711,11.0901 19.32168,12.11553 18.05664,12.11553 C16.7916,12.11553 15.76617,11.0901 15.76617,9.82506 C15.76617,8.56002 16.7916,7.53459 18.05664,7.53459 C19.32168,7.53459 20.34711,8.56002 20.34711,9.82506" id="Fill-18"></path>
                <path d="M23.0643,15.52782 C23.0643,16.4493 22.31712,17.19669 21.39522,17.19669 C20.47353,17.19669 19.72614,16.4493 19.72614,15.52782 C19.72614,14.60592 20.47353,13.85853 21.39522,13.85853 C22.31712,13.85853 23.0643,14.60592 23.0643,15.52782" id="Fill-19"></path>
                <path d="M27.02973,11.4303 C27.02973,12.3522 26.28255,13.09938 25.36065,13.09938 C24.43896,13.09938 23.69157,12.3522 23.69157,11.4303 C23.69157,10.50861 24.43896,9.76143 25.36065,9.76143 C26.28255,9.76143 27.02973,10.50861 27.02973,11.4303" id="Fill-20"></path>
                <path d="M34.95534,9.82506 C34.95534,11.0901 33.9297,12.11553 32.66466,12.11553 C31.39983,12.11553 30.37419,11.0901 30.37419,9.82506 C30.37419,8.56002 31.39983,7.53459 32.66466,7.53459 C33.9297,7.53459 34.95534,8.56002 34.95534,9.82506" id="Fill-21"></path>
                <path d="M38.91594,4.1223 C38.91594,5.73069 37.61205,7.03458 36.00345,7.03458 C34.39506,7.03458 33.09117,5.73069 33.09117,4.1223 C33.09117,2.51391 34.39506,1.21002 36.00345,1.21002 C37.61205,1.21002 38.91594,2.51391 38.91594,4.1223" id="Fill-22"></path>
                <path d="M30.99516,15.52782 C30.99516,16.4493 30.24798,17.19669 29.32629,17.19669 C28.40439,17.19669 27.65721,16.4493 27.65721,15.52782 C27.65721,14.60592 28.40439,13.85853 29.32629,13.85853 C30.24798,13.85853 30.99516,14.60592 30.99516,15.52782" id="Fill-23"></path>
                <path d="M34.95534,19.63206 C34.95534,18.70911 34.20732,17.96109 33.28437,17.96109 C32.36163,17.96109 31.6134,18.70911 31.6134,19.63206 C31.6134,20.5548 32.36163,21.30303 33.28437,21.30303 C34.20732,21.30303 34.95534,20.5548 34.95534,19.63206" id="Fill-24"></path>
                <path d="M40.2024,14.16471 C40.2024,12.9696 39.23346,12.00045 38.03814,12.00045 C36.84282,12.00045 35.87388,12.9696 35.87388,14.16471 C35.87388,15.36003 36.84282,16.32897 38.03814,16.32897 C39.23346,16.32897 40.2024,15.36003 40.2024,14.16471" id="Fill-25"></path>
                <path d="M45.45135,8.69736 C45.45135,7.22862 44.26065,6.03792 42.79191,6.03792 C41.32296,6.03792 40.13247,7.22862 40.13247,8.69736 C40.13247,10.1661 41.32296,11.3568 42.79191,11.3568 C44.26065,11.3568 45.45135,10.1661 45.45135,8.69736" id="Fill-26"></path>
                <path d="M50.7003,3.23001 C50.7003,1.48764 49.28805,0.07518 47.54568,0.07518 C45.80331,0.07518 44.39085,1.48764 44.39085,3.23001 C44.39085,4.97238 45.80331,6.38484 47.54568,6.38484 C49.28805,6.38484 50.7003,4.97238 50.7003,3.23001" id="Fill-27"></path>
            </g>
        </g>
    </g>
</svg>